{
    "avatar_url": "https://avatars.githubusercontent.com/u/5437974?v=3",
    "bio": null,
    "blog": "www.asgarbayli.de",
    "company": null,
    "created_at": "2013-09-11T17:57:02Z",
    "email": null,
    "events_url": "https://api.github.com/users/rashad2985/events{/privacy}",
    "followers": 2,
    "followers_url": "https://api.github.com/users/rashad2985/followers",
    "following": 5,
    "following_url": "https://api.github.com/users/rashad2985/following{/other_user}",
    "gists_url": "https://api.github.com/users/rashad2985/gists{/gist_id}",
    "gravatar_id": "",
    "hireable": true,
    "html_url": "https://github.com/rashad2985",
    "id": 5437974,
    "location": "Karlsruhe, Germany",
    "login": "rashad2985",
    "name": "Rashad Asgarbayli",
    "organizations_url": "https://api.github.com/users/rashad2985/orgs",
    "public_gists": 0,
    "public_repos": 15,
    "received_events_url": "https://api.github.com/users/rashad2985/received_events",
    "repos_url": "https://api.github.com/users/rashad2985/repos",
    "site_admin": false,
    "starred_url": "https://api.github.com/users/rashad2985/starred{/owner}{/repo}",
    "subscriptions_url": "https://api.github.com/users/rashad2985/subscriptions",
    "type": "User",
    "updated_at": "2017-01-09T11:10:21Z",
    "url": "https://api.github.com/users/rashad2985"
}
