[
    {
        "commit": {
            "sha": "4e6c17f5a21a3311d4f064a4b5ec2d00c7196396",
            "url": "https://api.github.com/repos/lego04/robot/commits/4e6c17f5a21a3311d4f064a4b5ec2d00c7196396"
        },
        "name": "WallFollowerAlterenative"
    },
    {
        "commit": {
            "sha": "e98d3bb4ab6b48ae7c63c7aab49515da373df32b",
            "url": "https://api.github.com/repos/lego04/robot/commits/e98d3bb4ab6b48ae7c63c7aab49515da373df32b"
        },
        "name": "master"
    }
]
