[
    {
        "commit": {
            "sha": "f76b07a6e1831808c5f69b99a39b3ef4e68023f7",
            "url": "https://api.github.com/repos/sindresorhus/notifier-for-github-chrome/commits/f76b07a6e1831808c5f69b99a39b3ef4e68023f7"
        },
        "name": "feature-39-chrome.storage.sync"
    },
    {
        "commit": {
            "sha": "8829cd086df012814cb17d3731cfd3fe0c006eab",
            "url": "https://api.github.com/repos/sindresorhus/notifier-for-github-chrome/commits/8829cd086df012814cb17d3731cfd3fe0c006eab"
        },
        "name": "master"
    }
]
