[
    {
        "commit": {
            "sha": "8ad7341336847ff3ed069bb840eef85fb8652601",
            "url": "https://api.github.com/repos/rashad2985/ba_timestamp/commits/8ad7341336847ff3ed069bb840eef85fb8652601"
        },
        "name": "b1"
    },
    {
        "commit": {
            "sha": "8e76cc46d8940a64458a7ce9b8a38569b2326711",
            "url": "https://api.github.com/repos/rashad2985/ba_timestamp/commits/8e76cc46d8940a64458a7ce9b8a38569b2326711"
        },
        "name": "master"
    }
]
