[
    {
        "commit": {
            "sha": "b6ca7f244187f29e3aac09fe567d46a52c1918ed",
            "url": "https://api.github.com/repos/rashad2985/ba_multi_source/commits/b6ca7f244187f29e3aac09fe567d46a52c1918ed"
        },
        "name": "master"
    },
    {
        "commit": {
            "sha": "5247d163a98e804497212ffc6f1ca3e1b0b5a1ae",
            "url": "https://api.github.com/repos/rashad2985/ba_multi_source/commits/5247d163a98e804497212ffc6f1ca3e1b0b5a1ae"
        },
        "name": "master2"
    }
]
